…
We do have some duplicated MIDAS values. They appear to differ in
detail, and usually represent separated sub-basins of larger bodies of
water. We addressed this problem for Casco Bay lakes, but not for other
lakes in Maine. The solution is to review each replicate point
(manually) and decide how best to address the problem.

``` r
dups = Maine_Lakes$MIDAS[duplicated(Maine_Lakes$MIDAS)] %>% unique()
Maine_Lakes[Maine_Lakes$MIDAS %in% dups,]
```

    ## # A tibble: 186 x 8
    ##    MIDAS Lake    Town    Latitude Longitude Elevation Notes        Name_Change  
    ##    <int> <chr>   <chr>      <dbl>     <dbl>     <dbl> <chr>        <chr>        
    ##  1  2058 Abol D~ T2 R10~     45.8     -69.0       570 missing 24k~ <NA>         
    ##  2  2058 Abol D~ T2 R10~     45.8     -69.0       570 <NA>         <NA>         
    ##  3  2068 Abol P~ T2 R9 ~     45.8     -68.9       592 <NA>         <NA>         
    ##  4  2068 Abol P~ T2 R9 ~     45.8     -68.9       595 this featur~ <NA>         
    ##  5   982 Ambaje~ T1 R9 ~     45.7     -68.9       492 Pemadumcook~ <NA>         
    ##  6  5064 Bag Po~ Chain ~     45.3     -70.7      1275 Chain of Po~ <NA>         
    ##  7  3898 Balch ~ Acton       43.6     -71.0       558 Stump & Bal~ <NA>         
    ##  8  3624 Bear P~ Hartfo~     44.3     -70.3       373 <NA>         <NA>         
    ##  9  4048 Beaver~ Plymou~     45.9     -69.9      1073 Part of / c~ Yes - name c~
    ## 10  2858 Big Ea~ Eagle ~     46.3     -69.4       930 <NA>         <NA>         
    ## # ... with 176 more rows
…
``` r
t1 <- Maine_Lakes %>% select(MIDAS, Lake, Town)
t2 <- morpho_data  %>% select(MIDAS, Lake, Town)

# Because of duplicated MIDAS numbers, the number of rows here is greater than
# in the list of Maine Lakes.  That's OK, since this is a quick QA/QC check.
t3 <- t1 %>% inner_join(t2, by = 'MIDAS')
```

``` r
t3[(t3$Lake.x != t3$Lake.y),] %>%
  select(MIDAS, contains('Lake'))
```

    ## # A tibble: 2,963 x 3
    ##    MIDAS Lake.x              Lake.y                                             
    ##    <dbl> <chr>               <chr>                                              
    ##  1  1562 4th Pelletier Broo~ 4th Pelletier Brk Lake                             
    ##  2  1504 5th Pelletier Broo~ Fifth Pelletier Brk Lk                             
    ##  3  1502 6th Pelletier Broo~ Sixth Pelletier Brk Lk                             
    ##  4  2058 Abol Deadwater Pd-~ Abol Deadwater                                     
    ##  5  2068 Abol Pond (North)   Abol Pond                                          
    ##  6  3890 Adams Pond          Adams (Rock Haven) Pond                            
    ##  7  1012 Alerton Lake        Alerton (Alberton) Lake                            
    ##  8   982 Ambajejus Lake      Ambajejus (Elbow, North Twin, South Twin, Pemadumc~
    ##  9  5422 Anderson Pond       Anderson (Evers) Pond                              
    ## 10  3290 Aziscohos Lake      Aziscohos (Aziscoos, Sawyer) Lake                  
    ## # ... with 2,953 more rows
…
``` r
morpho_data$Lake[morpho_data$MIDAS == 3734] <- 'Highland (Duck) Lake'
morpho_data$Lake[morpho_data$MIDAS == 3424] <- 'Little Moose Pond'
```

#### Town Names

``` r
t3[(t3$Town.x != t3$Town.y),] %>%
  select(contains('Town'))
```

    ## # A tibble: 960 x 2
    ##    Town.x                        Town.y                                         
    ##    <chr>                         <chr>                                          
    ##  1 Bowdoin College Grant East T~ Bowdoin College Grant East Twp, Bowdoin Colleg~
    ##  2 Eastbrook                     Eastbrook, Franklin                            
    ##  3 Standish                      Baldwin, Standish                              
    ##  4 Chapman                       Chapman, T11 R4 WELS                           
    ##  5 T3 R5 BKP WKR                 Lower Enchanted Twp, T3 R5 BKP WKR             
    ##  6 T8 R14 WELS                   T7 R14 WELS, T8 R14 WELS                       
    ##  7 T35 MD BPP                    T35 MD                                         
    ##  8 T34 MD BPP                    T28 MD, T34 MD                                 
    ##  9 T1 R9 WELS                    T3 Indian Purchase Twp, T4 Indian Purchase Twp~
    ## 10 T10 SD BPP                    T10 SD                                         
    ## # ... with 950 more rows
…
``` r
# Pull out "MIDAS', 'Lake', and 'Town' data only
context_list = lapply(clean_df_list, function(df) select(df, 1:3))

midas_table <- bind_rows(context_list) %>%
  unique() %>%
  arrange(MIDAS)

midas_table
```

    ## # A tibble: 1,078 x 3
    ##    MIDAS Lake                   Town                       
    ##    <chr> <chr>                  <chr>                      
    ##  1 -0001 Skiff Lake, NB         <NA>                       
    ##  2 -0002 McAdam Pond, NB        <NA>                       
    ##  3 -0003 Ivanhoe, NH            <NA>                       
    ##  4 0001  Solon Flowage          Solon                      
    ##  5 0002  Indian Pond            Lexington Twp              
    ##  6 0004  Gilman Pond            New Portland, Lexington Twp
    ##  7 0007  Estes Lake             Alfred, Sanford            
    ##  8 0008  Little Indian Pond     Lexington Twp              
    ##  9 0009  Fish River (Fish) Lake T13 R8 WELS, T14 R8 WELS   
    ## 10 0012  Porter Lake            New Vineyard, Strong       
    ## # ... with 1,068 more rows
…
Our qualifiers are not unique across parameters, ‘C’ and ’A are each
duplicated, used to code different things in different source data sets.

## Color ‘AORT’ and ‘Color\_Method’

``` r
pH %>%
  select(Aort, Color_Method) %>%
  group_by(Color_Method) %>%
  summarise(count_A = sum(Aort == 'A'),
            count_T = sum(Aort == 'T'),
            count_na = sum(is.na(Aort)))
```

    ## # A tibble: 22 x 4
    ##    Color_Method       count_A count_T count_na
    ##    <chr>                <int>   <int>    <int>
    ##  1 C                     3189      20        0
    ##  2 E                        1       0        0
    ##  3 F                       NA      NA        1
    ##  4 Field Device            48      29        0
    ##  5 H                       NA      NA      590
    ##  6 H2                     205     212        0
    ##  7 Hach Color Wheel       101      18        0
    ##  8 HACH COLOR WHEEL       640     473        0
    ##  9 Hach Color Wheel 2     448     454        0
    ## 10 HACH WHEEL               4       0        0
    ## # ... with 12 more rows
…
  mutate(Units = if_else(Parameter == 'Ph', NA_character_,
                    if_else(Parameter == 'Color', 'SPU', 
                      if_else(Parameter == 'Conductivity', 'uS',
                        if_else(Parameter == 'Alkalinity', 'mg/l',
                                NA_character_) ) ) ) ) %>%
  select(-Ph_Method, -Aort, -Cond_Method, -Alk_Method) %>%
  filter(! is.na(Value)) %>%
  arrange(Date, MIDAS, Station, Type, Depth)
sample_data
```

    ## # A tibble: 115,197 x 12
    ##    MIDAS Lake        Town   Station Date                Depth Type  Color_Method
    ##    <chr> <chr>       <chr>    <dbl> <dttm>              <dbl> <chr> <chr>       
    ##  1 3454  Highland L~ Bridg~       2 1938-06-29 00:00:00   0   G     <NA>        
    ##  2 3454  Highland L~ Bridg~       2 1938-06-29 00:00:00   4.6 G     <NA>        
    ##  3 3454  Highland L~ Bridg~       2 1938-06-29 00:00:00   6.1 G     <NA>        
    ##  4 3454  Highland L~ Bridg~       2 1938-06-29 00:00:00   7.6 G     <NA>        
    ##  5 3454  Highland L~ Bridg~       3 1938-06-29 00:00:00   0   G     <NA>        
    ##  6 3454  Highland L~ Bridg~       3 1938-06-29 00:00:00   4.6 G     <NA>        
    ##  7 3454  Highland L~ Bridg~       3 1938-06-29 00:00:00   6.1 G     <NA>        
    ##  8 3454  Highland L~ Bridg~       3 1938-06-29 00:00:00   9.1 G     <NA>        
    ##  9 3454  Highland L~ Bridg~       3 1938-06-29 00:00:00  14   G     <NA>        
    ## 10 3454  Highland L~ Bridg~       1 1938-08-20 00:00:00   0   G     <NA>        
    ## # ... with 115,187 more rows, and 4 more variables: Parameter <chr>,
    ## #   Value <dbl>, Method <chr>, Units <chr>
…
