…
# TSI Data Availability

``` r
tsi_data %>%
  select(Lake, contains('Tsi')) %>%
  group_by(Lake) %>%
  summarize(across(contains('Tsi'), function(x) sum(! is.na(x)))) %>%
  arrange(Tsi_Sec)
#> `summarise()` ungrouping output (override with `.groups` argument)
#> # A tibble: 39 x 5
#>    Lake              Tsi_Sec Tsi_Chl Tsi_Tpec Tsi_Tppg
#>    <chr>               <int>   <int>    <int>    <int>
#>  1 Otter Pond              0       1        0        0
#>  2 Songo Pond              0       1        0        0
#>  3 Woods Pond              0      17        0        0
#>  4 Houghton Pond           1       0        0        0
#>  5 North Gorham Pond       1       0        0        0
#>  6 Parker Pond             1       0        0        0
#>  7 Chaffin Pond            3       0        0        0
#>  8 Nubble Pond             3       3        1        0
#>  9 Collins Pond            4       0        0        0
#> 10 Coffee Pond            10       4        1        0
#> # ... with 29 more rows
```
…
