…
  filter (! is.na(Secchi_Depth)) %>%
  mutate(from_PWD =  ! is.na(StationName)) %>%
  select(Date, Station, Secchi_Depth, from_PWD) %>%
  mutate(dup_data = duplicated(cbind(Secchi_Depth, Date)) |
                    duplicated(cbind(Secchi_Depth, Date),
                               fromLast = TRUE),
         dup_sample = duplicated(cbind(Station, Date)) |
                      duplicated(cbind(Station, Date),
                                 fromLast = TRUE)) %>%
  filter(dup_data) %>%
  select(-dup_data) %>%
  arrange(Date, Secchi_Depth, Station )
```

    ## # A tibble: 151 x 5
    ##    Date                Station Secchi_Depth from_PWD dup_sample
    ##    <dttm>                <dbl>        <dbl> <lgl>    <lgl>     
    ##  1 1977-08-16 00:00:00       7          7.4 FALSE    FALSE     
    ##  2 1977-08-16 00:00:00       9          7.4 FALSE    FALSE     
    ##  3 1977-09-12 00:00:00       8         10.1 FALSE    FALSE     
    ##  4 1977-09-12 00:00:00       9         10.1 FALSE    FALSE     
    ##  5 1982-06-25 00:00:00       1          6   FALSE    FALSE     
    ##  6 1982-06-25 00:00:00      11          6   FALSE    FALSE     
    ##  7 1983-05-21 00:00:00       1          8   FALSE    TRUE      
    ##  8 1983-05-21 00:00:00      11          8   FALSE    FALSE     
    ##  9 1983-06-22 00:00:00       1          7.2 FALSE    TRUE      
    ## 10 1983-06-22 00:00:00      11          7.2 FALSE    FALSE     
    ## # ... with 141 more rows
…
